EESchema Schematic File Version 2
LIBS:power
LIBS:device
LIBS:switches
LIBS:relays
LIBS:motors
LIBS:transistors
LIBS:conn
LIBS:linear
LIBS:regul
LIBS:74xx
LIBS:cmos4000
LIBS:adc-dac
LIBS:memory
LIBS:xilinx
LIBS:microcontrollers
LIBS:dsp
LIBS:microchip
LIBS:analog_switches
LIBS:motorola
LIBS:texas
LIBS:intel
LIBS:audio
LIBS:interface
LIBS:digital-audio
LIBS:philips
LIBS:display
LIBS:cypress
LIBS:siliconi
LIBS:opto
LIBS:atmel
LIBS:contrib
LIBS:valves
LIBS:MCU_Microchip_PIC18
LIBS:18f2550_mini_ocb-cache
EELAYER 25 0
EELAYER END
$Descr A4 11693 8268
encoding utf-8
Sheet 1 1
Title ""
Date ""
Rev ""
Comp ""
Comment1 ""
Comment2 ""
Comment3 ""
Comment4 ""
$EndDescr
$Comp
L PIC18LF2550-ISO U2
U 1 1 5BD5F93F
P 5300 2950
F 0 "U2" H 4300 3950 50  0000 C CNN
F 1 "PIC18LF2550-ISO" H 5950 1950 50  0000 C CNN
F 2 "Housings_DIP:DIP-28_W7.62mm_Socket_LongPads" H 5300 2950 50  0001 C CIN
F 3 "" H 5300 2500 50  0001 C CNN
	1    5300 2950
	1    0    0    -1  
$EndComp
$Comp
L Crystal Y1
U 1 1 5BD5F9D5
P 3500 2750
F 0 "Y1" H 3500 2900 50  0000 C CNN
F 1 "Crystal" H 3500 2600 50  0000 C CNN
F 2 "Crystals:Crystal_HC18-U_Vertical" H 3500 2750 50  0001 C CNN
F 3 "" H 3500 2750 50  0001 C CNN
	1    3500 2750
	0    1    1    0   
$EndComp
$Comp
L ULN2803A U1
U 1 1 5BD5FA4E
P 2900 4500
F 0 "U1" H 2900 5025 50  0000 C CNN
F 1 "ULN2803A" H 2900 4950 50  0000 C CNN
F 2 "Housings_DIP:DIP-18_W7.62mm_Socket_LongPads" H 2950 3850 50  0001 L CNN
F 3 "" H 3000 4400 50  0001 C CNN
	1    2900 4500
	1    0    0    -1  
$EndComp
Text GLabel 1950 4900 0    60   Input ~ 0
RB0
Text GLabel 2200 4800 0    60   Input ~ 0
RB1
Text GLabel 1950 4700 0    60   Input ~ 0
RB2
Text GLabel 2200 4600 0    60   Input ~ 0
RB3
Text GLabel 1950 4500 0    60   Input ~ 0
RB4
Text GLabel 2200 4400 0    60   Input ~ 0
RB5
Text GLabel 1950 4300 0    60   Input ~ 0
RB6
Text GLabel 2200 4200 0    60   Input ~ 0
RB7
Text GLabel 3800 3050 0    60   Input ~ 0
RB0
Text GLabel 3550 3150 0    60   Input ~ 0
RB1
Text GLabel 3800 3250 0    60   Input ~ 0
RB2
Text GLabel 3550 3350 0    60   Input ~ 0
RB3
Text GLabel 3800 3450 0    60   Input ~ 0
RB4
Text GLabel 3550 3550 0    60   Input ~ 0
RB5
Text GLabel 3800 3650 0    60   Input ~ 0
RB6
Text GLabel 3550 3750 0    60   Input ~ 0
RB7
Text GLabel 6700 2450 2    60   Input ~ 0
D-
Text GLabel 6950 2550 2    60   Input ~ 0
D+
Text GLabel 6650 2650 2    60   Input ~ 0
TX
Text GLabel 6950 2750 2    60   Input ~ 0
RX
$Comp
L R R1
U 1 1 5BD60BC5
P 3100 2550
F 0 "R1" V 3180 2550 50  0000 C CNN
F 1 "R" V 3100 2550 50  0000 C CNN
F 2 "Resistors_THT:R_Axial_DIN0207_L6.3mm_D2.5mm_P10.16mm_Horizontal" V 3030 2550 50  0001 C CNN
F 3 "" H 3100 2550 50  0001 C CNN
	1    3100 2550
	0    1    1    0   
$EndComp
$Comp
L LED D1
U 1 1 5BD60C18
P 2650 2550
F 0 "D1" H 2650 2650 50  0000 C CNN
F 1 "LED" H 2650 2450 50  0000 C CNN
F 2 "LEDs:LED_D3.0mm" H 2650 2550 50  0001 C CNN
F 3 "" H 2650 2550 50  0001 C CNN
	1    2650 2550
	-1   0    0    1   
$EndComp
$Comp
L VCC #PWR01
U 1 1 5BD60C91
P 2350 2700
F 0 "#PWR01" H 2350 2550 50  0001 C CNN
F 1 "VCC" H 2350 2850 50  0000 C CNN
F 2 "" H 2350 2700 50  0001 C CNN
F 3 "" H 2350 2700 50  0001 C CNN
	1    2350 2700
	-1   0    0    1   
$EndComp
$Comp
L C C4
U 1 1 5BD60D28
P 6800 2950
F 0 "C4" H 6825 3050 50  0000 L CNN
F 1 "C" H 6825 2850 50  0000 L CNN
F 2 "Capacitors_THT:C_Disc_D4.3mm_W1.9mm_P5.00mm" H 6838 2800 50  0001 C CNN
F 3 "" H 6800 2950 50  0001 C CNN
	1    6800 2950
	0    1    1    0   
$EndComp
$Comp
L GND #PWR02
U 1 1 5BD60DC4
P 7100 2950
F 0 "#PWR02" H 7100 2700 50  0001 C CNN
F 1 "GND" H 7100 2800 50  0000 C CNN
F 2 "" H 7100 2950 50  0001 C CNN
F 3 "" H 7100 2950 50  0001 C CNN
	1    7100 2950
	1    0    0    -1  
$EndComp
$Comp
L Conn_01x05 J1
U 1 1 5BD60EA8
P 4100 4400
F 0 "J1" H 4100 4700 50  0000 C CNN
F 1 "Conn_01x05" H 4100 4100 50  0000 C CNN
F 2 "Pin_Headers:Pin_Header_Straight_1x05_Pitch2.54mm" H 4100 4400 50  0001 C CNN
F 3 "" H 4100 4400 50  0001 C CNN
	1    4100 4400
	1    0    0    -1  
$EndComp
$Comp
L Conn_01x05 J2
U 1 1 5BD60F3B
P 4100 5100
F 0 "J2" H 4100 5400 50  0000 C CNN
F 1 "Conn_01x05" H 4100 4800 50  0000 C CNN
F 2 "Pin_Headers:Pin_Header_Straight_1x05_Pitch2.54mm" H 4100 5100 50  0001 C CNN
F 3 "" H 4100 5100 50  0001 C CNN
	1    4100 5100
	1    0    0    -1  
$EndComp
$Comp
L GND #PWR03
U 1 1 5BD61269
P 2900 5300
F 0 "#PWR03" H 2900 5050 50  0001 C CNN
F 1 "GND" H 2900 5150 50  0000 C CNN
F 2 "" H 2900 5300 50  0001 C CNN
F 3 "" H 2900 5300 50  0001 C CNN
	1    2900 5300
	1    0    0    -1  
$EndComp
$Comp
L VCC #PWR04
U 1 1 5BD612CF
P 3300 5300
F 0 "#PWR04" H 3300 5150 50  0001 C CNN
F 1 "VCC" H 3300 5450 50  0000 C CNN
F 2 "" H 3300 5300 50  0001 C CNN
F 3 "" H 3300 5300 50  0001 C CNN
	1    3300 5300
	-1   0    0    1   
$EndComp
$Comp
L Conn_01x04 J4
U 1 1 5BD61505
P 9500 3050
F 0 "J4" H 9500 3250 50  0000 C CNN
F 1 "Conn_01x04" H 9500 2750 50  0000 C CNN
F 2 "Pin_Headers:Pin_Header_Straight_1x04_Pitch2.54mm" H 9500 3050 50  0001 C CNN
F 3 "" H 9500 3050 50  0001 C CNN
	1    9500 3050
	0    -1   -1   0   
$EndComp
$Comp
L GND #PWR05
U 1 1 5BD6177D
P 5250 4250
F 0 "#PWR05" H 5250 4000 50  0001 C CNN
F 1 "GND" H 5250 4100 50  0000 C CNN
F 2 "" H 5250 4250 50  0001 C CNN
F 3 "" H 5250 4250 50  0001 C CNN
	1    5250 4250
	1    0    0    -1  
$EndComp
$Comp
L VCC #PWR06
U 1 1 5BD618CA
P 5300 1700
F 0 "#PWR06" H 5300 1550 50  0001 C CNN
F 1 "VCC" H 5300 1850 50  0000 C CNN
F 2 "" H 5300 1700 50  0001 C CNN
F 3 "" H 5300 1700 50  0001 C CNN
	1    5300 1700
	1    0    0    -1  
$EndComp
$Comp
L SW_Push SW1
U 1 1 5BD61989
P 6750 3550
F 0 "SW1" H 6800 3650 50  0000 L CNN
F 1 "SW_Push" H 6750 3490 50  0000 C CNN
F 2 "Buttons_Switches_THT:SW_PUSH_6mm" H 6750 3750 50  0001 C CNN
F 3 "" H 6750 3750 50  0001 C CNN
	1    6750 3550
	0    1    1    0   
$EndComp
$Comp
L GND #PWR07
U 1 1 5BD63C61
P 6750 3850
F 0 "#PWR07" H 6750 3600 50  0001 C CNN
F 1 "GND" H 6750 3700 50  0000 C CNN
F 2 "" H 6750 3850 50  0001 C CNN
F 3 "" H 6750 3850 50  0001 C CNN
	1    6750 3850
	1    0    0    -1  
$EndComp
$Comp
L R R2
U 1 1 5BD63E50
P 7350 3350
F 0 "R2" V 7430 3350 50  0000 C CNN
F 1 "R" V 7350 3350 50  0000 C CNN
F 2 "Resistors_THT:R_Axial_DIN0207_L6.3mm_D2.5mm_P10.16mm_Horizontal" V 7280 3350 50  0001 C CNN
F 3 "" H 7350 3350 50  0001 C CNN
	1    7350 3350
	0    1    1    0   
$EndComp
$Comp
L VCC #PWR08
U 1 1 5BD63F99
P 7550 3500
F 0 "#PWR08" H 7550 3350 50  0001 C CNN
F 1 "VCC" H 7550 3650 50  0000 C CNN
F 2 "" H 7550 3500 50  0001 C CNN
F 3 "" H 7550 3500 50  0001 C CNN
	1    7550 3500
	-1   0    0    1   
$EndComp
$Comp
L C C1
U 1 1 5BD64311
P 2950 2750
F 0 "C1" H 2975 2850 50  0000 L CNN
F 1 "C" H 2975 2650 50  0000 L CNN
F 2 "Capacitors_THT:C_Disc_D4.3mm_W1.9mm_P5.00mm" H 2988 2600 50  0001 C CNN
F 3 "" H 2950 2750 50  0001 C CNN
	1    2950 2750
	0    1    1    0   
$EndComp
$Comp
L C C2
U 1 1 5BD643C9
P 2950 3000
F 0 "C2" H 2975 3100 50  0000 L CNN
F 1 "C" H 2975 2900 50  0000 L CNN
F 2 "Capacitors_THT:C_Disc_D4.3mm_W1.9mm_P5.00mm" H 2988 2850 50  0001 C CNN
F 3 "" H 2950 3000 50  0001 C CNN
	1    2950 3000
	0    1    1    0   
$EndComp
$Comp
L GND #PWR09
U 1 1 5BD64586
P 2650 2950
F 0 "#PWR09" H 2650 2700 50  0001 C CNN
F 1 "GND" H 2650 2800 50  0000 C CNN
F 2 "" H 2650 2950 50  0001 C CNN
F 3 "" H 2650 2950 50  0001 C CNN
	1    2650 2950
	1    0    0    -1  
$EndComp
$Comp
L C C3
U 1 1 5BD6476F
P 5950 4350
F 0 "C3" H 5975 4450 50  0000 L CNN
F 1 "0.01UF" H 5975 4250 50  0000 L CNN
F 2 "Capacitors_THT:C_Disc_D4.3mm_W1.9mm_P5.00mm" H 5988 4200 50  0001 C CNN
F 3 "" H 5950 4350 50  0001 C CNN
	1    5950 4350
	0    1    1    0   
$EndComp
$Comp
L GND #PWR010
U 1 1 5BD6480D
P 6100 4600
F 0 "#PWR010" H 6100 4350 50  0001 C CNN
F 1 "GND" H 6100 4450 50  0000 C CNN
F 2 "" H 6100 4600 50  0001 C CNN
F 3 "" H 6100 4600 50  0001 C CNN
	1    6100 4600
	1    0    0    -1  
$EndComp
$Comp
L VCC #PWR011
U 1 1 5BD64858
P 5800 4600
F 0 "#PWR011" H 5800 4450 50  0001 C CNN
F 1 "VCC" H 5800 4750 50  0000 C CNN
F 2 "" H 5800 4600 50  0001 C CNN
F 3 "" H 5800 4600 50  0001 C CNN
	1    5800 4600
	-1   0    0    1   
$EndComp
Text GLabel 6950 2150 2    60   Input ~ 0
RC0
Text GLabel 8550 2450 3    60   Input ~ 0
RC0
$Comp
L Conn_01x03 J5
U 1 1 5BD64DD5
P 8650 2000
F 0 "J5" H 8650 2200 50  0000 C CNN
F 1 "Conn_01x03" H 8650 1800 50  0000 C CNN
F 2 "Pin_Headers:Pin_Header_Straight_1x03_Pitch2.54mm" H 8650 2000 50  0001 C CNN
F 3 "" H 8650 2000 50  0001 C CNN
	1    8650 2000
	0    -1   -1   0   
$EndComp
$Comp
L GND #PWR012
U 1 1 5BD64F25
P 8750 2200
F 0 "#PWR012" H 8750 1950 50  0001 C CNN
F 1 "GND" H 8750 2050 50  0000 C CNN
F 2 "" H 8750 2200 50  0001 C CNN
F 3 "" H 8750 2200 50  0001 C CNN
	1    8750 2200
	1    0    0    -1  
$EndComp
$Comp
L VCC #PWR013
U 1 1 5BD64F74
P 8650 2300
F 0 "#PWR013" H 8650 2150 50  0001 C CNN
F 1 "VCC" H 8650 2450 50  0000 C CNN
F 2 "" H 8650 2300 50  0001 C CNN
F 3 "" H 8650 2300 50  0001 C CNN
	1    8650 2300
	-1   0    0    1   
$EndComp
$Comp
L Conn_01x02 J7
U 1 1 5BD65895
P 8450 4250
F 0 "J7" H 8450 4350 50  0000 C CNN
F 1 "Conn_01x02" H 8450 4050 50  0000 C CNN
F 2 "Pin_Headers:Pin_Header_Straight_1x02_Pitch2.54mm" H 8450 4250 50  0001 C CNN
F 3 "" H 8450 4250 50  0001 C CNN
	1    8450 4250
	1    0    0    -1  
$EndComp
$Comp
L GND #PWR014
U 1 1 5BD65934
P 8050 4450
F 0 "#PWR014" H 8050 4200 50  0001 C CNN
F 1 "GND" H 8050 4300 50  0000 C CNN
F 2 "" H 8050 4450 50  0001 C CNN
F 3 "" H 8050 4450 50  0001 C CNN
	1    8050 4450
	1    0    0    -1  
$EndComp
$Comp
L VCC #PWR015
U 1 1 5BD65975
P 7800 4250
F 0 "#PWR015" H 7800 4100 50  0001 C CNN
F 1 "VCC" H 7800 4400 50  0000 C CNN
F 2 "" H 7800 4250 50  0001 C CNN
F 3 "" H 7800 4250 50  0001 C CNN
	1    7800 4250
	-1   0    0    1   
$EndComp
$Comp
L Conn_01x03 J6
U 1 1 5BD65B36
P 8000 3800
F 0 "J6" H 8000 4000 50  0000 C CNN
F 1 "Conn_01x03" H 8000 3600 50  0000 C CNN
F 2 "Pin_Headers:Pin_Header_Straight_1x03_Pitch2.54mm" H 8000 3800 50  0001 C CNN
F 3 "" H 8000 3800 50  0001 C CNN
	1    8000 3800
	0    -1   -1   0   
$EndComp
Text GLabel 9500 3550 3    60   Input ~ 0
RX
Text GLabel 9400 3350 3    60   Input ~ 0
TX
$Comp
L GND #PWR016
U 1 1 5BD665EF
P 9600 3350
F 0 "#PWR016" H 9600 3100 50  0001 C CNN
F 1 "GND" H 9600 3200 50  0000 C CNN
F 2 "" H 9600 3350 50  0001 C CNN
F 3 "" H 9600 3350 50  0001 C CNN
	1    9600 3350
	1    0    0    -1  
$EndComp
$Comp
L VCC #PWR017
U 1 1 5BD66633
P 9700 3500
F 0 "#PWR017" H 9700 3350 50  0001 C CNN
F 1 "VCC" H 9700 3650 50  0000 C CNN
F 2 "" H 9700 3500 50  0001 C CNN
F 3 "" H 9700 3500 50  0001 C CNN
	1    9700 3500
	-1   0    0    1   
$EndComp
$Comp
L CP C5
U 1 1 5BD6740D
P 7050 3600
F 0 "C5" H 7075 3700 50  0000 L CNN
F 1 "CP" H 7075 3500 50  0000 L CNN
F 2 "Capacitors_THT:CP_Radial_D5.0mm_P2.50mm" H 7088 3450 50  0001 C CNN
F 3 "" H 7050 3600 50  0001 C CNN
	1    7050 3600
	1    0    0    -1  
$EndComp
Wire Wire Line
	2200 4200 2500 4200
Wire Wire Line
	2500 4300 1950 4300
Wire Wire Line
	2200 4400 2500 4400
Wire Wire Line
	2500 4500 1950 4500
Wire Wire Line
	2200 4600 2500 4600
Wire Wire Line
	2500 4700 1950 4700
Wire Wire Line
	2200 4800 2500 4800
Wire Wire Line
	2500 4900 1950 4900
Wire Wire Line
	3800 3050 4100 3050
Wire Wire Line
	4100 3150 3550 3150
Wire Wire Line
	3800 3250 4100 3250
Wire Wire Line
	4100 3350 3550 3350
Wire Wire Line
	3800 3450 4100 3450
Wire Wire Line
	4100 3550 3550 3550
Wire Wire Line
	3800 3650 4100 3650
Wire Wire Line
	4100 3750 3550 3750
Wire Wire Line
	4100 2750 3750 2750
Wire Wire Line
	3750 2750 3750 2600
Wire Wire Line
	3750 2600 3250 2600
Wire Wire Line
	4100 2850 3750 2850
Wire Wire Line
	3750 2850 3750 2900
Wire Wire Line
	3750 2900 3250 2900
Wire Wire Line
	6700 2450 6500 2450
Wire Wire Line
	6500 2550 6950 2550
Wire Wire Line
	6500 2650 6650 2650
Wire Wire Line
	6500 2750 6950 2750
Wire Wire Line
	4100 2550 3250 2550
Wire Wire Line
	2800 2550 2950 2550
Wire Wire Line
	2500 2550 2350 2550
Wire Wire Line
	2350 2550 2350 2700
Wire Wire Line
	6950 2950 7100 2950
Wire Wire Line
	6650 2950 6500 2950
Wire Wire Line
	3900 4200 3300 4200
Wire Wire Line
	3300 4300 3900 4300
Wire Wire Line
	3900 4400 3300 4400
Wire Wire Line
	3300 4500 3900 4500
Wire Wire Line
	3300 4600 3700 4600
Wire Wire Line
	3700 4600 3700 4900
Wire Wire Line
	3700 4900 3900 4900
Wire Wire Line
	3300 4700 3650 4700
Wire Wire Line
	3650 4700 3650 5000
Wire Wire Line
	3650 5000 3900 5000
Wire Wire Line
	3300 4800 3600 4800
Wire Wire Line
	3600 4800 3600 5100
Wire Wire Line
	3600 5100 3900 5100
Wire Wire Line
	3900 5200 3550 5200
Wire Wire Line
	3550 5200 3550 4900
Wire Wire Line
	3550 4900 3300 4900
Wire Wire Line
	2900 5200 2900 5300
Wire Wire Line
	3300 5000 3300 5300
Wire Wire Line
	3900 4600 3800 4600
Wire Wire Line
	3800 4600 3800 5300
Wire Wire Line
	3350 5300 3900 5300
Wire Wire Line
	3350 5300 3350 5200
Wire Wire Line
	3350 5200 3300 5200
Connection ~ 3300 5200
Connection ~ 3800 5300
Wire Wire Line
	5200 4050 5200 4250
Wire Wire Line
	5200 4250 5300 4250
Wire Wire Line
	5300 4250 5300 4050
Connection ~ 5250 4250
Wire Wire Line
	5300 1850 5300 1700
Wire Wire Line
	6500 3150 6750 3150
Wire Wire Line
	6750 3150 6750 3350
Wire Wire Line
	6750 3850 6750 3750
Wire Wire Line
	6750 3350 7200 3350
Wire Wire Line
	7050 3350 7050 3450
Wire Wire Line
	7050 3750 7050 3800
Wire Wire Line
	7050 3800 6750 3800
Connection ~ 6750 3800
Connection ~ 7050 3350
Wire Wire Line
	7500 3350 7550 3350
Wire Wire Line
	7550 3350 7550 3500
Wire Wire Line
	3250 2900 3250 3000
Wire Wire Line
	3250 3000 3100 3000
Connection ~ 3500 2900
Wire Wire Line
	3250 2600 3250 2750
Wire Wire Line
	3250 2750 3100 2750
Connection ~ 3500 2600
Wire Wire Line
	2800 2750 2800 3000
Wire Wire Line
	2650 2950 2800 2950
Connection ~ 2800 2950
Wire Wire Line
	6100 4350 6100 4600
Wire Wire Line
	5800 4600 5800 4350
Wire Wire Line
	6500 2150 6950 2150
Wire Wire Line
	8650 2300 8650 2200
Wire Wire Line
	8550 2450 8550 2200
Wire Wire Line
	8050 4450 8050 4350
Wire Wire Line
	8050 4350 8250 4350
Wire Wire Line
	7800 4250 8000 4250
Wire Wire Line
	8000 4250 8000 4000
Wire Wire Line
	8100 4000 8100 4250
Wire Wire Line
	8100 4250 8250 4250
Wire Wire Line
	9400 3350 9400 3250
Wire Wire Line
	9500 3550 9500 3250
Wire Wire Line
	9600 3350 9600 3250
Wire Wire Line
	9700 3500 9700 3250
$Comp
L Conn_01x04 J3
U 1 1 5BD686E8
P 9100 4800
F 0 "J3" H 9100 5000 50  0000 C CNN
F 1 "Conn_01x04" H 9100 4500 50  0000 C CNN
F 2 "Pin_Headers:Pin_Header_Straight_1x04_Pitch2.54mm" H 9100 4800 50  0001 C CNN
F 3 "" H 9100 4800 50  0001 C CNN
	1    9100 4800
	0    -1   -1   0   
$EndComp
Text GLabel 9200 5150 3    60   Input ~ 0
D+
Text GLabel 9100 5350 3    60   Input ~ 0
D-
Wire Wire Line
	9000 5000 7650 5000
Wire Wire Line
	7650 5000 7650 4150
Wire Wire Line
	7650 4150 7900 4150
Wire Wire Line
	7900 4150 7900 4000
$Comp
L GND #PWR018
U 1 1 5BD688CE
P 9350 5450
F 0 "#PWR018" H 9350 5200 50  0001 C CNN
F 1 "GND" H 9350 5300 50  0000 C CNN
F 2 "" H 9350 5450 50  0001 C CNN
F 3 "" H 9350 5450 50  0001 C CNN
	1    9350 5450
	1    0    0    -1  
$EndComp
Wire Wire Line
	9300 5000 9300 5450
Wire Wire Line
	9300 5450 9350 5450
Wire Wire Line
	9200 5000 9200 5150
Wire Wire Line
	9100 5350 9100 5000
$EndSCHEMATC
