(export (version D)
  (design
    (source /home/vbasel/icaro/kicad/18f2550_mini_pcb/18f2550_mini_ocb.sch)
    (date "dom 28 oct 2018 17:32:28 -03")
    (tool "Eeschema 4.0.7")
    (sheet (number 1) (name /) (tstamps /)
      (title_block
        (title)
        (company)
        (rev)
        (date)
        (source 18f2550_mini_ocb.sch)
        (comment (number 1) (value ""))
        (comment (number 2) (value ""))
        (comment (number 3) (value ""))
        (comment (number 4) (value "")))))
  (components
    (comp (ref U2)
      (value PIC18LF2550-ISO)
      (footprint Housings_DIP:DIP-28_W7.62mm_Socket_LongPads)
      (libsource (lib MCU_Microchip_PIC18) (part PIC18LF2550-ISO))
      (sheetpath (names /) (tstamps /))
      (tstamp 5BD5F93F))
    (comp (ref Y1)
      (value Crystal)
      (footprint Crystals:Crystal_HC18-U_Vertical)
      (libsource (lib device) (part Crystal))
      (sheetpath (names /) (tstamps /))
      (tstamp 5BD5F9D5))
    (comp (ref U1)
      (value ULN2803A)
      (footprint Housings_DIP:DIP-18_W7.62mm_Socket_LongPads)
      (libsource (lib interface) (part ULN2803A))
      (sheetpath (names /) (tstamps /))
      (tstamp 5BD5FA4E))
    (comp (ref R1)
      (value R)
      (footprint Resistors_THT:R_Axial_DIN0207_L6.3mm_D2.5mm_P10.16mm_Horizontal)
      (libsource (lib device) (part R))
      (sheetpath (names /) (tstamps /))
      (tstamp 5BD60BC5))
    (comp (ref D1)
      (value LED)
      (footprint LEDs:LED_D3.0mm)
      (libsource (lib device) (part LED))
      (sheetpath (names /) (tstamps /))
      (tstamp 5BD60C18))
    (comp (ref C4)
      (value C)
      (footprint Capacitors_THT:C_Disc_D4.3mm_W1.9mm_P5.00mm)
      (libsource (lib device) (part C))
      (sheetpath (names /) (tstamps /))
      (tstamp 5BD60D28))
    (comp (ref J1)
      (value Conn_01x05)
      (footprint Pin_Headers:Pin_Header_Straight_1x05_Pitch2.54mm)
      (libsource (lib conn) (part Conn_01x05))
      (sheetpath (names /) (tstamps /))
      (tstamp 5BD60EA8))
    (comp (ref J2)
      (value Conn_01x05)
      (footprint Pin_Headers:Pin_Header_Straight_1x05_Pitch2.54mm)
      (libsource (lib conn) (part Conn_01x05))
      (sheetpath (names /) (tstamps /))
      (tstamp 5BD60F3B))
    (comp (ref J4)
      (value Conn_01x04)
      (footprint Pin_Headers:Pin_Header_Straight_1x04_Pitch2.54mm)
      (libsource (lib conn) (part Conn_01x04))
      (sheetpath (names /) (tstamps /))
      (tstamp 5BD61505))
    (comp (ref SW1)
      (value SW_Push)
      (footprint Buttons_Switches_THT:SW_PUSH_6mm)
      (libsource (lib switches) (part SW_Push))
      (sheetpath (names /) (tstamps /))
      (tstamp 5BD61989))
    (comp (ref R2)
      (value R)
      (footprint Resistors_THT:R_Axial_DIN0207_L6.3mm_D2.5mm_P10.16mm_Horizontal)
      (libsource (lib device) (part R))
      (sheetpath (names /) (tstamps /))
      (tstamp 5BD63E50))
    (comp (ref C1)
      (value C)
      (footprint Capacitors_THT:C_Disc_D4.3mm_W1.9mm_P5.00mm)
      (libsource (lib device) (part C))
      (sheetpath (names /) (tstamps /))
      (tstamp 5BD64311))
    (comp (ref C2)
      (value C)
      (footprint Capacitors_THT:C_Disc_D4.3mm_W1.9mm_P5.00mm)
      (libsource (lib device) (part C))
      (sheetpath (names /) (tstamps /))
      (tstamp 5BD643C9))
    (comp (ref C3)
      (value 0.01UF)
      (footprint Capacitors_THT:C_Disc_D4.3mm_W1.9mm_P5.00mm)
      (libsource (lib device) (part C))
      (sheetpath (names /) (tstamps /))
      (tstamp 5BD6476F))
    (comp (ref J5)
      (value Conn_01x03)
      (footprint Pin_Headers:Pin_Header_Straight_1x03_Pitch2.54mm)
      (libsource (lib conn) (part Conn_01x03))
      (sheetpath (names /) (tstamps /))
      (tstamp 5BD64DD5))
    (comp (ref J7)
      (value Conn_01x02)
      (footprint Pin_Headers:Pin_Header_Straight_1x02_Pitch2.54mm)
      (libsource (lib conn) (part Conn_01x02))
      (sheetpath (names /) (tstamps /))
      (tstamp 5BD65895))
    (comp (ref J6)
      (value Conn_01x03)
      (footprint Pin_Headers:Pin_Header_Straight_1x03_Pitch2.54mm)
      (libsource (lib conn) (part Conn_01x03))
      (sheetpath (names /) (tstamps /))
      (tstamp 5BD65B36))
    (comp (ref C5)
      (value CP)
      (footprint Capacitors_THT:CP_Radial_D5.0mm_P2.50mm)
      (libsource (lib device) (part CP))
      (sheetpath (names /) (tstamps /))
      (tstamp 5BD6740D))
    (comp (ref J3)
      (value Conn_01x04)
      (footprint Pin_Headers:Pin_Header_Straight_1x04_Pitch2.54mm)
      (libsource (lib conn) (part Conn_01x04))
      (sheetpath (names /) (tstamps /))
      (tstamp 5BD686E8)))
  (libparts
    (libpart (lib device) (part C)
      (description "Unpolarized capacitor")
      (footprints
        (fp C_*))
      (fields
        (field (name Reference) C)
        (field (name Value) C))
      (pins
        (pin (num 1) (name ~) (type passive))
        (pin (num 2) (name ~) (type passive))))
    (libpart (lib device) (part CP)
      (description "Polarised capacitor")
      (footprints
        (fp CP_*))
      (fields
        (field (name Reference) C)
        (field (name Value) CP))
      (pins
        (pin (num 1) (name ~) (type passive))
        (pin (num 2) (name ~) (type passive))))
    (libpart (lib conn) (part Conn_01x02)
      (description "Generic connector, single row, 01x02")
      (docs ~)
      (footprints
        (fp Connector*:*_??x*mm*)
        (fp Connector*:*1x??x*mm*)
        (fp Pin?Header?Straight?1X*)
        (fp Pin?Header?Angled?1X*)
        (fp Socket?Strip?Straight?1X*)
        (fp Socket?Strip?Angled?1X*))
      (fields
        (field (name Reference) J)
        (field (name Value) Conn_01x02))
      (pins
        (pin (num 1) (name Pin_1) (type passive))
        (pin (num 2) (name Pin_2) (type passive))))
    (libpart (lib conn) (part Conn_01x03)
      (description "Generic connector, single row, 01x03")
      (docs ~)
      (footprints
        (fp Connector*:*_??x*mm*)
        (fp Connector*:*1x??x*mm*)
        (fp Pin?Header?Straight?1X*)
        (fp Pin?Header?Angled?1X*)
        (fp Socket?Strip?Straight?1X*)
        (fp Socket?Strip?Angled?1X*))
      (fields
        (field (name Reference) J)
        (field (name Value) Conn_01x03))
      (pins
        (pin (num 1) (name Pin_1) (type passive))
        (pin (num 2) (name Pin_2) (type passive))
        (pin (num 3) (name Pin_3) (type passive))))
    (libpart (lib conn) (part Conn_01x04)
      (description "Generic connector, single row, 01x04")
      (docs ~)
      (footprints
        (fp Connector*:*_??x*mm*)
        (fp Connector*:*1x??x*mm*)
        (fp Pin?Header?Straight?1X*)
        (fp Pin?Header?Angled?1X*)
        (fp Socket?Strip?Straight?1X*)
        (fp Socket?Strip?Angled?1X*))
      (fields
        (field (name Reference) J)
        (field (name Value) Conn_01x04))
      (pins
        (pin (num 1) (name Pin_1) (type passive))
        (pin (num 2) (name Pin_2) (type passive))
        (pin (num 3) (name Pin_3) (type passive))
        (pin (num 4) (name Pin_4) (type passive))))
    (libpart (lib conn) (part Conn_01x05)
      (description "Generic connector, single row, 01x05")
      (docs ~)
      (footprints
        (fp Connector*:*_??x*mm*)
        (fp Connector*:*1x??x*mm*)
        (fp Pin?Header?Straight?1X*)
        (fp Pin?Header?Angled?1X*)
        (fp Socket?Strip?Straight?1X*)
        (fp Socket?Strip?Angled?1X*))
      (fields
        (field (name Reference) J)
        (field (name Value) Conn_01x05))
      (pins
        (pin (num 1) (name Pin_1) (type passive))
        (pin (num 2) (name Pin_2) (type passive))
        (pin (num 3) (name Pin_3) (type passive))
        (pin (num 4) (name Pin_4) (type passive))
        (pin (num 5) (name Pin_5) (type passive))))
    (libpart (lib device) (part Crystal)
      (description "Two pin crystal")
      (footprints
        (fp Crystal*))
      (fields
        (field (name Reference) Y)
        (field (name Value) Crystal))
      (pins
        (pin (num 1) (name 1) (type passive))
        (pin (num 2) (name 2) (type passive))))
    (libpart (lib device) (part LED)
      (description "LED generic")
      (footprints
        (fp LED*))
      (fields
        (field (name Reference) D)
        (field (name Value) LED))
      (pins
        (pin (num 1) (name K) (type passive))
        (pin (num 2) (name A) (type passive))))
    (libpart (lib MCU_Microchip_PIC18) (part PIC18F2455-ISO)
      (aliases
        (alias PIC18LF2455-ISO)
        (alias PIC18LF2550-ISO)
        (alias PIC18F2550-ISO))
      (footprints
        (fp SO*W*7.5x17.9mm_P1.27mm*))
      (fields
        (field (name Reference) U)
        (field (name Value) PIC18F2455-ISO)
        (field (name Footprint) Package_SO:SOIC-28W_7.5x17.9mm_P1.27mm))
      (pins
        (pin (num 1) (name Vpp/~MCLR~/RE3) (type input))
        (pin (num 2) (name RA0/AN0) (type BiDi))
        (pin (num 3) (name RA1/AN1) (type BiDi))
        (pin (num 4) (name RA2/AN2/Vref-/CVref) (type BiDi))
        (pin (num 5) (name RA3/AN3/Vref+) (type BiDi))
        (pin (num 6) (name RA4/T0CKI/C1OUT/RCV) (type BiDi))
        (pin (num 7) (name RA5/AN4/~SS~/HLVDIN/C2OUT) (type BiDi))
        (pin (num 8) (name VSS) (type power_in))
        (pin (num 9) (name OSC1/CLKI) (type input))
        (pin (num 10) (name RA6/OSC2/CLKO) (type output))
        (pin (num 11) (name T1OSO/T13CKI/RC0) (type BiDi))
        (pin (num 12) (name ~UOE~/CCP2/T1OSI/RC1) (type BiDi))
        (pin (num 13) (name CCP1/RC2) (type BiDi))
        (pin (num 14) (name VUSB) (type BiDi))
        (pin (num 15) (name VM/D-/RC4) (type BiDi))
        (pin (num 16) (name VP/D+/RC5) (type BiDi))
        (pin (num 17) (name TX/CK/RC6) (type BiDi))
        (pin (num 18) (name SDO/RX/DT/RC7) (type BiDi))
        (pin (num 19) (name VSS) (type power_in))
        (pin (num 20) (name VDD) (type power_in))
        (pin (num 21) (name RB0/AN12/INT0/FLT0/SDI/SDA) (type BiDi))
        (pin (num 22) (name RB1/AN10/INT1/SCK/SCL) (type BiDi))
        (pin (num 23) (name RB2/AN8/INT2/VMO) (type BiDi))
        (pin (num 24) (name RB3/AN9/CCP2/VPO) (type BiDi))
        (pin (num 25) (name RB4/AN11/KBI0) (type BiDi))
        (pin (num 26) (name RB5/KBI1/PGM) (type BiDi))
        (pin (num 27) (name RB6/KBI2/PGC) (type BiDi))
        (pin (num 28) (name RB7/KBI3/PGD) (type BiDi))))
    (libpart (lib device) (part R)
      (description Resistor)
      (footprints
        (fp R_*)
        (fp R_*))
      (fields
        (field (name Reference) R)
        (field (name Value) R))
      (pins
        (pin (num 1) (name ~) (type passive))
        (pin (num 2) (name ~) (type passive))))
    (libpart (lib switches) (part SW_Push)
      (description "Push button switch, generic, two pins")
      (fields
        (field (name Reference) SW)
        (field (name Value) SW_Push))
      (pins
        (pin (num 1) (name 1) (type passive))
        (pin (num 2) (name 2) (type passive))))
    (libpart (lib interface) (part ULN2803A)
      (aliases
        (alias ULN2802A)
        (alias ULN2801A)
        (alias ULN2804A)
        (alias ULN2805A))
      (description "Darlington Transistor Arrays")
      (docs http://www.ti.com/lit/ds/symlink/uln2803a.pdf)
      (footprints
        (fp DIP*W7.62mm*)
        (fp SOIC-18*))
      (fields
        (field (name Reference) U)
        (field (name Value) ULN2803A))
      (pins
        (pin (num 1) (name I1) (type input))
        (pin (num 2) (name I2) (type input))
        (pin (num 3) (name I3) (type input))
        (pin (num 4) (name I4) (type input))
        (pin (num 5) (name I5) (type input))
        (pin (num 6) (name I6) (type input))
        (pin (num 7) (name I7) (type input))
        (pin (num 8) (name I8) (type input))
        (pin (num 9) (name GND) (type power_in))
        (pin (num 10) (name COM) (type passive))
        (pin (num 11) (name O8) (type openCol))
        (pin (num 12) (name O7) (type openCol))
        (pin (num 13) (name O6) (type openCol))
        (pin (num 14) (name O5) (type openCol))
        (pin (num 15) (name O4) (type openCol))
        (pin (num 16) (name O3) (type openCol))
        (pin (num 17) (name O2) (type openCol))
        (pin (num 18) (name O1) (type openCol)))))
  (libraries
    (library (logical MCU_Microchip_PIC18)
      (uri /home/vbasel/icaro/kicad/18f2550_mini_pcb/LIB/MCU_Microchip_PIC18.lib))
    (library (logical switches)
      (uri /usr/share/kicad/library/switches.lib))
    (library (logical conn)
      (uri /usr/share/kicad/library/conn.lib))
    (library (logical device)
      (uri /usr/share/kicad/library/device.lib))
    (library (logical interface)
      (uri /usr/share/kicad/library/interface.lib)))
  (nets
    (net (code 1) (name "Net-(C4-Pad2)")
      (node (ref C4) (pin 2))
      (node (ref U2) (pin 14)))
    (net (code 2) (name "Net-(D1-Pad1)")
      (node (ref D1) (pin 1))
      (node (ref R1) (pin 2)))
    (net (code 3) (name "Net-(R1-Pad1)")
      (node (ref R1) (pin 1))
      (node (ref U2) (pin 6)))
    (net (code 4) (name "Net-(J1-Pad1)")
      (node (ref U1) (pin 18))
      (node (ref J1) (pin 1)))
    (net (code 5) (name "Net-(J1-Pad2)")
      (node (ref U1) (pin 17))
      (node (ref J1) (pin 2)))
    (net (code 6) (name "Net-(J1-Pad3)")
      (node (ref U1) (pin 16))
      (node (ref J1) (pin 3)))
    (net (code 7) (name "Net-(J1-Pad4)")
      (node (ref J1) (pin 4))
      (node (ref U1) (pin 15)))
    (net (code 8) (name "Net-(J2-Pad1)")
      (node (ref U1) (pin 14))
      (node (ref J2) (pin 1)))
    (net (code 9) (name "Net-(J2-Pad2)")
      (node (ref J2) (pin 2))
      (node (ref U1) (pin 13)))
    (net (code 10) (name "Net-(J2-Pad3)")
      (node (ref U1) (pin 12))
      (node (ref J2) (pin 3)))
    (net (code 11) (name "Net-(J2-Pad4)")
      (node (ref J2) (pin 4))
      (node (ref U1) (pin 11)))
    (net (code 12) (name GND)
      (node (ref J3) (pin 4))
      (node (ref C3) (pin 1))
      (node (ref J4) (pin 3))
      (node (ref C4) (pin 1))
      (node (ref J5) (pin 3))
      (node (ref U1) (pin 9))
      (node (ref C2) (pin 2))
      (node (ref C1) (pin 2))
      (node (ref SW1) (pin 2))
      (node (ref U2) (pin 19))
      (node (ref U2) (pin 8))
      (node (ref J7) (pin 2))
      (node (ref C5) (pin 2)))
    (net (code 13) (name VCC)
      (node (ref D1) (pin 2))
      (node (ref R2) (pin 1))
      (node (ref J6) (pin 2))
      (node (ref J5) (pin 2))
      (node (ref U1) (pin 10))
      (node (ref C3) (pin 2))
      (node (ref U2) (pin 20))
      (node (ref J2) (pin 5))
      (node (ref J1) (pin 5))
      (node (ref J4) (pin 4)))
    (net (code 14) (name RX)
      (node (ref J4) (pin 2))
      (node (ref U2) (pin 18)))
    (net (code 15) (name TX)
      (node (ref J4) (pin 1))
      (node (ref U2) (pin 17)))
    (net (code 16) (name "Net-(C5-Pad1)")
      (node (ref SW1) (pin 1))
      (node (ref C5) (pin 1))
      (node (ref R2) (pin 2))
      (node (ref U2) (pin 1)))
    (net (code 17) (name RB7)
      (node (ref U2) (pin 28))
      (node (ref U1) (pin 1)))
    (net (code 18) (name RB6)
      (node (ref U1) (pin 2))
      (node (ref U2) (pin 27)))
    (net (code 19) (name RB5)
      (node (ref U2) (pin 26))
      (node (ref U1) (pin 3)))
    (net (code 20) (name RB4)
      (node (ref U1) (pin 4))
      (node (ref U2) (pin 25)))
    (net (code 21) (name RB3)
      (node (ref U2) (pin 24))
      (node (ref U1) (pin 5)))
    (net (code 22) (name RB2)
      (node (ref U1) (pin 6))
      (node (ref U2) (pin 23)))
    (net (code 23) (name RB1)
      (node (ref U1) (pin 7))
      (node (ref U2) (pin 22)))
    (net (code 24) (name RB0)
      (node (ref U1) (pin 8))
      (node (ref U2) (pin 21)))
    (net (code 25) (name "Net-(J6-Pad3)")
      (node (ref J7) (pin 1))
      (node (ref J6) (pin 3)))
    (net (code 26) (name "Net-(J3-Pad1)")
      (node (ref J6) (pin 1))
      (node (ref J3) (pin 1)))
    (net (code 27) (name RC0)
      (node (ref U2) (pin 11))
      (node (ref J5) (pin 1)))
    (net (code 28) (name D+)
      (node (ref J3) (pin 3))
      (node (ref U2) (pin 16)))
    (net (code 29) (name D-)
      (node (ref U2) (pin 15))
      (node (ref J3) (pin 2)))
    (net (code 30) (name "Net-(U2-Pad2)")
      (node (ref U2) (pin 2)))
    (net (code 31) (name "Net-(U2-Pad3)")
      (node (ref U2) (pin 3)))
    (net (code 32) (name "Net-(U2-Pad4)")
      (node (ref U2) (pin 4)))
    (net (code 33) (name "Net-(U2-Pad5)")
      (node (ref U2) (pin 5)))
    (net (code 34) (name "Net-(U2-Pad7)")
      (node (ref U2) (pin 7)))
    (net (code 35) (name "Net-(U2-Pad12)")
      (node (ref U2) (pin 12)))
    (net (code 36) (name "Net-(U2-Pad13)")
      (node (ref U2) (pin 13)))
    (net (code 37) (name "Net-(C1-Pad1)")
      (node (ref Y1) (pin 1))
      (node (ref U2) (pin 10))
      (node (ref C1) (pin 1)))
    (net (code 38) (name "Net-(C2-Pad1)")
      (node (ref U2) (pin 9))
      (node (ref Y1) (pin 2))
      (node (ref C2) (pin 1)))))